[
    {
        "type": "archive",
        "archive-type": "tar-gzip",
        "url": "https://static.crates.io/crates/adblock/adblock-0.5.6.crate",
        "sha256": "27785ef5b89bc88fd2def3e1ecfefdf5ec1583795b916667afd15b13058f8315",
        "dest": "cargo/vendor/adblock-0.5.6"
    },
    {
        "type": "inline",
        "contents": "{\"package\": \"27785ef5b89bc88fd2def3e1ecfefdf5ec1583795b916667afd15b13058f8315\", \"files\": {}}",
        "dest": "cargo/vendor/adblock-0.5.6",
        "dest-filename": ".cargo-checksum.json"
    },
    {
        "type": "archive",
        "archive-type": "tar-gzip",
        "url": "https://static.crates.io/crates/addr/addr-0.14.0.crate",
        "sha256": "c54ccac949a2afafdfc889e15c753bbc6ee8783e026bbe3d057b00b13907db70",
        "dest": "cargo/vendor/addr-0.14.0"
    },
    {
        "type": "inline",
        "contents": "{\"package\": \"c54ccac949a2afafdfc889e15c753bbc6ee8783e026bbe3d057b00b13907db70\", \"files\": {}}",
        "dest": "cargo/vendor/addr-0.14.0",
        "dest-filename": ".cargo-checksum.json"
    },
    {
        "type": "archive",
        "archive-type": "tar-gzip",
        "url": "https://static.crates.io/crates/adler/adler-1.0.2.crate",
        "sha256": "f26201604c87b1e01bd3d98f8d5d9a8fcbb815e8cedb41ffccbeb4bf593a35fe",
        "dest": "cargo/vendor/adler-1.0.2"
    },
    {
        "type": "inline",
        "contents": "{\"package\": \"f26201604c87b1e01bd3d98f8d5d9a8fcbb815e8cedb41ffccbeb4bf593a35fe\", \"files\": {}}",
        "dest": "cargo/vendor/adler-1.0.2",
        "dest-filename": ".cargo-checksum.json"
    },
    {
        "type": "archive",
        "archive-type": "tar-gzip",
        "url": "https://static.crates.io/crates/aho-corasick/aho-corasick-0.7.19.crate",
        "sha256": "b4f55bd91a0978cbfd91c457a164bab8b4001c833b7f323132c0a4e1922dd44e",
        "dest": "cargo/vendor/aho-corasick-0.7.19"
    },
    {
        "type": "inline",
        "contents": "{\"package\": \"b4f55bd91a0978cbfd91c457a164bab8b4001c833b7f323132c0a4e1922dd44e\", \"files\": {}}",
        "dest": "cargo/vendor/aho-corasick-0.7.19",
        "dest-filename": ".cargo-checksum.json"
    },
    {
        "type": "archive",
        "archive-type": "tar-gzip",
        "url": "https://static.crates.io/crates/autocfg/autocfg-1.1.0.crate",
        "sha256": "d468802bab17cbc0cc575e9b053f41e72aa36bfa6b7f55e3529ffa43161b97fa",
        "dest": "cargo/vendor/autocfg-1.1.0"
    },
    {
        "type": "inline",
        "contents": "{\"package\": \"d468802bab17cbc0cc575e9b053f41e72aa36bfa6b7f55e3529ffa43161b97fa\", \"files\": {}}",
        "dest": "cargo/vendor/autocfg-1.1.0",
        "dest-filename": ".cargo-checksum.json"
    },
    {
        "type": "archive",
        "archive-type": "tar-gzip",
        "url": "https://static.crates.io/crates/base64/base64-0.13.0.crate",
        "sha256": "904dfeac50f3cdaba28fc6f57fdcddb75f49ed61346676a78c4ffe55877802fd",
        "dest": "cargo/vendor/base64-0.13.0"
    },
    {
        "type": "inline",
        "contents": "{\"package\": \"904dfeac50f3cdaba28fc6f57fdcddb75f49ed61346676a78c4ffe55877802fd\", \"files\": {}}",
        "dest": "cargo/vendor/base64-0.13.0",
        "dest-filename": ".cargo-checksum.json"
    },
    {
        "type": "archive",
        "archive-type": "tar-gzip",
        "url": "https://static.crates.io/crates/bitflags/bitflags-1.3.2.crate",
        "sha256": "bef38d45163c2f1dde094a7dfd33ccf595c92905c8f8f4fdc18d06fb1037718a",
        "dest": "cargo/vendor/bitflags-1.3.2"
    },
    {
        "type": "inline",
        "contents": "{\"package\": \"bef38d45163c2f1dde094a7dfd33ccf595c92905c8f8f4fdc18d06fb1037718a\", \"files\": {}}",
        "dest": "cargo/vendor/bitflags-1.3.2",
        "dest-filename": ".cargo-checksum.json"
    },
    {
        "type": "archive",
        "archive-type": "tar-gzip",
        "url": "https://static.crates.io/crates/byteorder/byteorder-1.4.3.crate",
        "sha256": "14c189c53d098945499cdfa7ecc63567cf3886b3332b312a5b4585d8d3a6a610",
        "dest": "cargo/vendor/byteorder-1.4.3"
    },
    {
        "type": "inline",
        "contents": "{\"package\": \"14c189c53d098945499cdfa7ecc63567cf3886b3332b312a5b4585d8d3a6a610\", \"files\": {}}",
        "dest": "cargo/vendor/byteorder-1.4.3",
        "dest-filename": ".cargo-checksum.json"
    },
    {
        "type": "archive",
        "archive-type": "tar-gzip",
        "url": "https://static.crates.io/crates/cc/cc-1.0.73.crate",
        "sha256": "2fff2a6927b3bb87f9595d67196a70493f627687a71d87a0d692242c33f58c11",
        "dest": "cargo/vendor/cc-1.0.73"
    },
    {
        "type": "inline",
        "contents": "{\"package\": \"2fff2a6927b3bb87f9595d67196a70493f627687a71d87a0d692242c33f58c11\", \"files\": {}}",
        "dest": "cargo/vendor/cc-1.0.73",
        "dest-filename": ".cargo-checksum.json"
    },
    {
        "type": "archive",
        "archive-type": "tar-gzip",
        "url": "https://static.crates.io/crates/cfg-if/cfg-if-1.0.0.crate",
        "sha256": "baf1de4339761588bc0619e3cbc0120ee582ebb74b53b4efbf79117bd2da40fd",
        "dest": "cargo/vendor/cfg-if-1.0.0"
    },
    {
        "type": "inline",
        "contents": "{\"package\": \"baf1de4339761588bc0619e3cbc0120ee582ebb74b53b4efbf79117bd2da40fd\", \"files\": {}}",
        "dest": "cargo/vendor/cfg-if-1.0.0",
        "dest-filename": ".cargo-checksum.json"
    },
    {
        "type": "archive",
        "archive-type": "tar-gzip",
        "url": "https://static.crates.io/crates/codespan-reporting/codespan-reporting-0.11.1.crate",
        "sha256": "3538270d33cc669650c4b093848450d380def10c331d38c768e34cac80576e6e",
        "dest": "cargo/vendor/codespan-reporting-0.11.1"
    },
    {
        "type": "inline",
        "contents": "{\"package\": \"3538270d33cc669650c4b093848450d380def10c331d38c768e34cac80576e6e\", \"files\": {}}",
        "dest": "cargo/vendor/codespan-reporting-0.11.1",
        "dest-filename": ".cargo-checksum.json"
    },
    {
        "type": "archive",
        "archive-type": "tar-gzip",
        "url": "https://static.crates.io/crates/crc32fast/crc32fast-1.3.2.crate",
        "sha256": "b540bd8bc810d3885c6ea91e2018302f68baba2129ab3e88f32389ee9370880d",
        "dest": "cargo/vendor/crc32fast-1.3.2"
    },
    {
        "type": "inline",
        "contents": "{\"package\": \"b540bd8bc810d3885c6ea91e2018302f68baba2129ab3e88f32389ee9370880d\", \"files\": {}}",
        "dest": "cargo/vendor/crc32fast-1.3.2",
        "dest-filename": ".cargo-checksum.json"
    },
    {
        "type": "archive",
        "archive-type": "tar-gzip",
        "url": "https://static.crates.io/crates/cxx/cxx-1.0.75.crate",
        "sha256": "8b7df2292959b7e22a5cb39d37b7e72b2c748b12f956cc409b529fddcdc8857b",
        "dest": "cargo/vendor/cxx-1.0.75"
    },
    {
        "type": "inline",
        "contents": "{\"package\": \"8b7df2292959b7e22a5cb39d37b7e72b2c748b12f956cc409b529fddcdc8857b\", \"files\": {}}",
        "dest": "cargo/vendor/cxx-1.0.75",
        "dest-filename": ".cargo-checksum.json"
    },
    {
        "type": "archive",
        "archive-type": "tar-gzip",
        "url": "https://static.crates.io/crates/cxx-build/cxx-build-1.0.75.crate",
        "sha256": "0806e5c64f74bd64b94d857b1c28cc3d493579a65f5f31e7d3451706d4025405",
        "dest": "cargo/vendor/cxx-build-1.0.75"
    },
    {
        "type": "inline",
        "contents": "{\"package\": \"0806e5c64f74bd64b94d857b1c28cc3d493579a65f5f31e7d3451706d4025405\", \"files\": {}}",
        "dest": "cargo/vendor/cxx-build-1.0.75",
        "dest-filename": ".cargo-checksum.json"
    },
    {
        "type": "archive",
        "archive-type": "tar-gzip",
        "url": "https://static.crates.io/crates/cxxbridge-flags/cxxbridge-flags-1.0.75.crate",
        "sha256": "d2069b1573efd6e5901004e8fdca2e28bc6f47f86dc24da81182851e71cf3208",
        "dest": "cargo/vendor/cxxbridge-flags-1.0.75"
    },
    {
        "type": "inline",
        "contents": "{\"package\": \"d2069b1573efd6e5901004e8fdca2e28bc6f47f86dc24da81182851e71cf3208\", \"files\": {}}",
        "dest": "cargo/vendor/cxxbridge-flags-1.0.75",
        "dest-filename": ".cargo-checksum.json"
    },
    {
        "type": "archive",
        "archive-type": "tar-gzip",
        "url": "https://static.crates.io/crates/cxxbridge-macro/cxxbridge-macro-1.0.75.crate",
        "sha256": "d980827d1ec28ea6e0db545fceaa611eb8e43f70eff8c1c33cc2c96ffa0f0476",
        "dest": "cargo/vendor/cxxbridge-macro-1.0.75"
    },
    {
        "type": "inline",
        "contents": "{\"package\": \"d980827d1ec28ea6e0db545fceaa611eb8e43f70eff8c1c33cc2c96ffa0f0476\", \"files\": {}}",
        "dest": "cargo/vendor/cxxbridge-macro-1.0.75",
        "dest-filename": ".cargo-checksum.json"
    },
    {
        "type": "archive",
        "archive-type": "tar-gzip",
        "url": "https://static.crates.io/crates/either/either-1.8.0.crate",
        "sha256": "90e5c1c8368803113bf0c9584fc495a58b86dc8a29edbf8fe877d21d9507e797",
        "dest": "cargo/vendor/either-1.8.0"
    },
    {
        "type": "inline",
        "contents": "{\"package\": \"90e5c1c8368803113bf0c9584fc495a58b86dc8a29edbf8fe877d21d9507e797\", \"files\": {}}",
        "dest": "cargo/vendor/either-1.8.0",
        "dest-filename": ".cargo-checksum.json"
    },
    {
        "type": "archive",
        "archive-type": "tar-gzip",
        "url": "https://static.crates.io/crates/flate2/flate2-1.0.24.crate",
        "sha256": "f82b0f4c27ad9f8bfd1f3208d882da2b09c301bc1c828fd3a00d0216d2fbbff6",
        "dest": "cargo/vendor/flate2-1.0.24"
    },
    {
        "type": "inline",
        "contents": "{\"package\": \"f82b0f4c27ad9f8bfd1f3208d882da2b09c301bc1c828fd3a00d0216d2fbbff6\", \"files\": {}}",
        "dest": "cargo/vendor/flate2-1.0.24",
        "dest-filename": ".cargo-checksum.json"
    },
    {
        "type": "archive",
        "archive-type": "tar-gzip",
        "url": "https://static.crates.io/crates/form_urlencoded/form_urlencoded-1.0.1.crate",
        "sha256": "5fc25a87fa4fd2094bffb06925852034d90a17f0d1e05197d4956d3555752191",
        "dest": "cargo/vendor/form_urlencoded-1.0.1"
    },
    {
        "type": "inline",
        "contents": "{\"package\": \"5fc25a87fa4fd2094bffb06925852034d90a17f0d1e05197d4956d3555752191\", \"files\": {}}",
        "dest": "cargo/vendor/form_urlencoded-1.0.1",
        "dest-filename": ".cargo-checksum.json"
    },
    {
        "type": "archive",
        "archive-type": "tar-gzip",
        "url": "https://static.crates.io/crates/idna/idna-0.2.3.crate",
        "sha256": "418a0a6fab821475f634efe3ccc45c013f742efe03d853e8d3355d5cb850ecf8",
        "dest": "cargo/vendor/idna-0.2.3"
    },
    {
        "type": "inline",
        "contents": "{\"package\": \"418a0a6fab821475f634efe3ccc45c013f742efe03d853e8d3355d5cb850ecf8\", \"files\": {}}",
        "dest": "cargo/vendor/idna-0.2.3",
        "dest-filename": ".cargo-checksum.json"
    },
    {
        "type": "archive",
        "archive-type": "tar-gzip",
        "url": "https://static.crates.io/crates/itertools/itertools-0.10.3.crate",
        "sha256": "a9a9d19fa1e79b6215ff29b9d6880b706147f16e9b1dbb1e4e5947b5b02bc5e3",
        "dest": "cargo/vendor/itertools-0.10.3"
    },
    {
        "type": "inline",
        "contents": "{\"package\": \"a9a9d19fa1e79b6215ff29b9d6880b706147f16e9b1dbb1e4e5947b5b02bc5e3\", \"files\": {}}",
        "dest": "cargo/vendor/itertools-0.10.3",
        "dest-filename": ".cargo-checksum.json"
    },
    {
        "type": "archive",
        "archive-type": "tar-gzip",
        "url": "https://static.crates.io/crates/lifeguard/lifeguard-0.6.1.crate",
        "sha256": "89be94dbd775db37b46ca4f4bf5cf89adfb13ba197bfbcb69b2122848ee73c26",
        "dest": "cargo/vendor/lifeguard-0.6.1"
    },
    {
        "type": "inline",
        "contents": "{\"package\": \"89be94dbd775db37b46ca4f4bf5cf89adfb13ba197bfbcb69b2122848ee73c26\", \"files\": {}}",
        "dest": "cargo/vendor/lifeguard-0.6.1",
        "dest-filename": ".cargo-checksum.json"
    },
    {
        "type": "archive",
        "archive-type": "tar-gzip",
        "url": "https://static.crates.io/crates/link-cplusplus/link-cplusplus-1.0.7.crate",
        "sha256": "9272ab7b96c9046fbc5bc56c06c117cb639fe2d509df0c421cad82d2915cf369",
        "dest": "cargo/vendor/link-cplusplus-1.0.7"
    },
    {
        "type": "inline",
        "contents": "{\"package\": \"9272ab7b96c9046fbc5bc56c06c117cb639fe2d509df0c421cad82d2915cf369\", \"files\": {}}",
        "dest": "cargo/vendor/link-cplusplus-1.0.7",
        "dest-filename": ".cargo-checksum.json"
    },
    {
        "type": "archive",
        "archive-type": "tar-gzip",
        "url": "https://static.crates.io/crates/matches/matches-0.1.9.crate",
        "sha256": "a3e378b66a060d48947b590737b30a1be76706c8dd7b8ba0f2fe3989c68a853f",
        "dest": "cargo/vendor/matches-0.1.9"
    },
    {
        "type": "inline",
        "contents": "{\"package\": \"a3e378b66a060d48947b590737b30a1be76706c8dd7b8ba0f2fe3989c68a853f\", \"files\": {}}",
        "dest": "cargo/vendor/matches-0.1.9",
        "dest-filename": ".cargo-checksum.json"
    },
    {
        "type": "archive",
        "archive-type": "tar-gzip",
        "url": "https://static.crates.io/crates/memchr/memchr-2.5.0.crate",
        "sha256": "2dffe52ecf27772e601905b7522cb4ef790d2cc203488bbd0e2fe85fcb74566d",
        "dest": "cargo/vendor/memchr-2.5.0"
    },
    {
        "type": "inline",
        "contents": "{\"package\": \"2dffe52ecf27772e601905b7522cb4ef790d2cc203488bbd0e2fe85fcb74566d\", \"files\": {}}",
        "dest": "cargo/vendor/memchr-2.5.0",
        "dest-filename": ".cargo-checksum.json"
    },
    {
        "type": "archive",
        "archive-type": "tar-gzip",
        "url": "https://static.crates.io/crates/miniz_oxide/miniz_oxide-0.5.4.crate",
        "sha256": "96590ba8f175222643a85693f33d26e9c8a015f599c216509b1a6894af675d34",
        "dest": "cargo/vendor/miniz_oxide-0.5.4"
    },
    {
        "type": "inline",
        "contents": "{\"package\": \"96590ba8f175222643a85693f33d26e9c8a015f599c216509b1a6894af675d34\", \"files\": {}}",
        "dest": "cargo/vendor/miniz_oxide-0.5.4",
        "dest-filename": ".cargo-checksum.json"
    },
    {
        "type": "archive",
        "archive-type": "tar-gzip",
        "url": "https://static.crates.io/crates/num-traits/num-traits-0.2.15.crate",
        "sha256": "578ede34cf02f8924ab9447f50c28075b4d3e5b269972345e7e0372b38c6cdcd",
        "dest": "cargo/vendor/num-traits-0.2.15"
    },
    {
        "type": "inline",
        "contents": "{\"package\": \"578ede34cf02f8924ab9447f50c28075b4d3e5b269972345e7e0372b38c6cdcd\", \"files\": {}}",
        "dest": "cargo/vendor/num-traits-0.2.15",
        "dest-filename": ".cargo-checksum.json"
    },
    {
        "type": "archive",
        "archive-type": "tar-gzip",
        "url": "https://static.crates.io/crates/once_cell/once_cell-1.14.0.crate",
        "sha256": "2f7254b99e31cad77da24b08ebf628882739a608578bb1bcdfc1f9c21260d7c0",
        "dest": "cargo/vendor/once_cell-1.14.0"
    },
    {
        "type": "inline",
        "contents": "{\"package\": \"2f7254b99e31cad77da24b08ebf628882739a608578bb1bcdfc1f9c21260d7c0\", \"files\": {}}",
        "dest": "cargo/vendor/once_cell-1.14.0",
        "dest-filename": ".cargo-checksum.json"
    },
    {
        "type": "archive",
        "archive-type": "tar-gzip",
        "url": "https://static.crates.io/crates/paste/paste-1.0.9.crate",
        "sha256": "b1de2e551fb905ac83f73f7aedf2f0cb4a0da7e35efa24a202a936269f1f18e1",
        "dest": "cargo/vendor/paste-1.0.9"
    },
    {
        "type": "inline",
        "contents": "{\"package\": \"b1de2e551fb905ac83f73f7aedf2f0cb4a0da7e35efa24a202a936269f1f18e1\", \"files\": {}}",
        "dest": "cargo/vendor/paste-1.0.9",
        "dest-filename": ".cargo-checksum.json"
    },
    {
        "type": "archive",
        "archive-type": "tar-gzip",
        "url": "https://static.crates.io/crates/percent-encoding/percent-encoding-2.1.0.crate",
        "sha256": "d4fd5641d01c8f18a23da7b6fe29298ff4b55afcccdf78973b24cf3175fee32e",
        "dest": "cargo/vendor/percent-encoding-2.1.0"
    },
    {
        "type": "inline",
        "contents": "{\"package\": \"d4fd5641d01c8f18a23da7b6fe29298ff4b55afcccdf78973b24cf3175fee32e\", \"files\": {}}",
        "dest": "cargo/vendor/percent-encoding-2.1.0",
        "dest-filename": ".cargo-checksum.json"
    },
    {
        "type": "archive",
        "archive-type": "tar-gzip",
        "url": "https://static.crates.io/crates/proc-macro2/proc-macro2-1.0.43.crate",
        "sha256": "0a2ca2c61bc9f3d74d2886294ab7b9853abd9c1ad903a3ac7815c58989bb7bab",
        "dest": "cargo/vendor/proc-macro2-1.0.43"
    },
    {
        "type": "inline",
        "contents": "{\"package\": \"0a2ca2c61bc9f3d74d2886294ab7b9853abd9c1ad903a3ac7815c58989bb7bab\", \"files\": {}}",
        "dest": "cargo/vendor/proc-macro2-1.0.43",
        "dest-filename": ".cargo-checksum.json"
    },
    {
        "type": "archive",
        "archive-type": "tar-gzip",
        "url": "https://static.crates.io/crates/psl/psl-2.1.2.crate",
        "sha256": "07242622d9f4b9c1a6fe9c2691cf18ee7d34400a5eed2e1668c756bfaea93fb3",
        "dest": "cargo/vendor/psl-2.1.2"
    },
    {
        "type": "inline",
        "contents": "{\"package\": \"07242622d9f4b9c1a6fe9c2691cf18ee7d34400a5eed2e1668c756bfaea93fb3\", \"files\": {}}",
        "dest": "cargo/vendor/psl-2.1.2",
        "dest-filename": ".cargo-checksum.json"
    },
    {
        "type": "archive",
        "archive-type": "tar-gzip",
        "url": "https://static.crates.io/crates/psl-types/psl-types-2.0.11.crate",
        "sha256": "33cb294fe86a74cbcf50d4445b37da762029549ebeea341421c7c70370f86cac",
        "dest": "cargo/vendor/psl-types-2.0.11"
    },
    {
        "type": "inline",
        "contents": "{\"package\": \"33cb294fe86a74cbcf50d4445b37da762029549ebeea341421c7c70370f86cac\", \"files\": {}}",
        "dest": "cargo/vendor/psl-types-2.0.11",
        "dest-filename": ".cargo-checksum.json"
    },
    {
        "type": "archive",
        "archive-type": "tar-gzip",
        "url": "https://static.crates.io/crates/quote/quote-1.0.21.crate",
        "sha256": "bbe448f377a7d6961e30f5955f9b8d106c3f5e449d493ee1b125c1d43c2b5179",
        "dest": "cargo/vendor/quote-1.0.21"
    },
    {
        "type": "inline",
        "contents": "{\"package\": \"bbe448f377a7d6961e30f5955f9b8d106c3f5e449d493ee1b125c1d43c2b5179\", \"files\": {}}",
        "dest": "cargo/vendor/quote-1.0.21",
        "dest-filename": ".cargo-checksum.json"
    },
    {
        "type": "archive",
        "archive-type": "tar-gzip",
        "url": "https://static.crates.io/crates/regex/regex-1.6.0.crate",
        "sha256": "4c4eb3267174b8c6c2f654116623910a0fef09c4753f8dd83db29c48a0df988b",
        "dest": "cargo/vendor/regex-1.6.0"
    },
    {
        "type": "inline",
        "contents": "{\"package\": \"4c4eb3267174b8c6c2f654116623910a0fef09c4753f8dd83db29c48a0df988b\", \"files\": {}}",
        "dest": "cargo/vendor/regex-1.6.0",
        "dest-filename": ".cargo-checksum.json"
    },
    {
        "type": "archive",
        "archive-type": "tar-gzip",
        "url": "https://static.crates.io/crates/regex-syntax/regex-syntax-0.6.27.crate",
        "sha256": "a3f87b73ce11b1619a3c6332f45341e0047173771e8b8b73f87bfeefb7b56244",
        "dest": "cargo/vendor/regex-syntax-0.6.27"
    },
    {
        "type": "inline",
        "contents": "{\"package\": \"a3f87b73ce11b1619a3c6332f45341e0047173771e8b8b73f87bfeefb7b56244\", \"files\": {}}",
        "dest": "cargo/vendor/regex-syntax-0.6.27",
        "dest-filename": ".cargo-checksum.json"
    },
    {
        "type": "archive",
        "archive-type": "tar-gzip",
        "url": "https://static.crates.io/crates/rmp/rmp-0.8.11.crate",
        "sha256": "44519172358fd6d58656c86ab8e7fbc9e1490c3e8f14d35ed78ca0dd07403c9f",
        "dest": "cargo/vendor/rmp-0.8.11"
    },
    {
        "type": "inline",
        "contents": "{\"package\": \"44519172358fd6d58656c86ab8e7fbc9e1490c3e8f14d35ed78ca0dd07403c9f\", \"files\": {}}",
        "dest": "cargo/vendor/rmp-0.8.11",
        "dest-filename": ".cargo-checksum.json"
    },
    {
        "type": "archive",
        "archive-type": "tar-gzip",
        "url": "https://static.crates.io/crates/rmp-serde/rmp-serde-0.13.7.crate",
        "sha256": "011e1d58446e9fa3af7cdc1fb91295b10621d3ac4cb3a85cc86385ee9ca50cd3",
        "dest": "cargo/vendor/rmp-serde-0.13.7"
    },
    {
        "type": "inline",
        "contents": "{\"package\": \"011e1d58446e9fa3af7cdc1fb91295b10621d3ac4cb3a85cc86385ee9ca50cd3\", \"files\": {}}",
        "dest": "cargo/vendor/rmp-serde-0.13.7",
        "dest-filename": ".cargo-checksum.json"
    },
    {
        "type": "archive",
        "archive-type": "tar-gzip",
        "url": "https://static.crates.io/crates/rmp-serde/rmp-serde-0.15.5.crate",
        "sha256": "723ecff9ad04f4ad92fe1c8ca6c20d2196d9286e9c60727c4cb5511629260e9d",
        "dest": "cargo/vendor/rmp-serde-0.15.5"
    },
    {
        "type": "inline",
        "contents": "{\"package\": \"723ecff9ad04f4ad92fe1c8ca6c20d2196d9286e9c60727c4cb5511629260e9d\", \"files\": {}}",
        "dest": "cargo/vendor/rmp-serde-0.15.5",
        "dest-filename": ".cargo-checksum.json"
    },
    {
        "type": "archive",
        "archive-type": "tar-gzip",
        "url": "https://static.crates.io/crates/scratch/scratch-1.0.2.crate",
        "sha256": "9c8132065adcfd6e02db789d9285a0deb2f3fcb04002865ab67d5fb103533898",
        "dest": "cargo/vendor/scratch-1.0.2"
    },
    {
        "type": "inline",
        "contents": "{\"package\": \"9c8132065adcfd6e02db789d9285a0deb2f3fcb04002865ab67d5fb103533898\", \"files\": {}}",
        "dest": "cargo/vendor/scratch-1.0.2",
        "dest-filename": ".cargo-checksum.json"
    },
    {
        "type": "archive",
        "archive-type": "tar-gzip",
        "url": "https://static.crates.io/crates/seahash/seahash-3.0.7.crate",
        "sha256": "58f57ca1d128a43733fd71d583e837b1f22239a37ebea09cde11d8d9a9080f47",
        "dest": "cargo/vendor/seahash-3.0.7"
    },
    {
        "type": "inline",
        "contents": "{\"package\": \"58f57ca1d128a43733fd71d583e837b1f22239a37ebea09cde11d8d9a9080f47\", \"files\": {}}",
        "dest": "cargo/vendor/seahash-3.0.7",
        "dest-filename": ".cargo-checksum.json"
    },
    {
        "type": "archive",
        "archive-type": "tar-gzip",
        "url": "https://static.crates.io/crates/serde/serde-1.0.144.crate",
        "sha256": "0f747710de3dcd43b88c9168773254e809d8ddbdf9653b84e2554ab219f17860",
        "dest": "cargo/vendor/serde-1.0.144"
    },
    {
        "type": "inline",
        "contents": "{\"package\": \"0f747710de3dcd43b88c9168773254e809d8ddbdf9653b84e2554ab219f17860\", \"files\": {}}",
        "dest": "cargo/vendor/serde-1.0.144",
        "dest-filename": ".cargo-checksum.json"
    },
    {
        "type": "archive",
        "archive-type": "tar-gzip",
        "url": "https://static.crates.io/crates/serde_derive/serde_derive-1.0.144.crate",
        "sha256": "94ed3a816fb1d101812f83e789f888322c34e291f894f19590dc310963e87a00",
        "dest": "cargo/vendor/serde_derive-1.0.144"
    },
    {
        "type": "inline",
        "contents": "{\"package\": \"94ed3a816fb1d101812f83e789f888322c34e291f894f19590dc310963e87a00\", \"files\": {}}",
        "dest": "cargo/vendor/serde_derive-1.0.144",
        "dest-filename": ".cargo-checksum.json"
    },
    {
        "type": "archive",
        "archive-type": "tar-gzip",
        "url": "https://static.crates.io/crates/syn/syn-1.0.99.crate",
        "sha256": "58dbef6ec655055e20b86b15a8cc6d439cca19b667537ac6a1369572d151ab13",
        "dest": "cargo/vendor/syn-1.0.99"
    },
    {
        "type": "inline",
        "contents": "{\"package\": \"58dbef6ec655055e20b86b15a8cc6d439cca19b667537ac6a1369572d151ab13\", \"files\": {}}",
        "dest": "cargo/vendor/syn-1.0.99",
        "dest-filename": ".cargo-checksum.json"
    },
    {
        "type": "archive",
        "archive-type": "tar-gzip",
        "url": "https://static.crates.io/crates/termcolor/termcolor-1.1.3.crate",
        "sha256": "bab24d30b911b2376f3a13cc2cd443142f0c81dda04c118693e35b3835757755",
        "dest": "cargo/vendor/termcolor-1.1.3"
    },
    {
        "type": "inline",
        "contents": "{\"package\": \"bab24d30b911b2376f3a13cc2cd443142f0c81dda04c118693e35b3835757755\", \"files\": {}}",
        "dest": "cargo/vendor/termcolor-1.1.3",
        "dest-filename": ".cargo-checksum.json"
    },
    {
        "type": "archive",
        "archive-type": "tar-gzip",
        "url": "https://static.crates.io/crates/tinyvec/tinyvec-1.6.0.crate",
        "sha256": "87cc5ceb3875bb20c2890005a4e226a4651264a5c75edb2421b52861a0a0cb50",
        "dest": "cargo/vendor/tinyvec-1.6.0"
    },
    {
        "type": "inline",
        "contents": "{\"package\": \"87cc5ceb3875bb20c2890005a4e226a4651264a5c75edb2421b52861a0a0cb50\", \"files\": {}}",
        "dest": "cargo/vendor/tinyvec-1.6.0",
        "dest-filename": ".cargo-checksum.json"
    },
    {
        "type": "archive",
        "archive-type": "tar-gzip",
        "url": "https://static.crates.io/crates/tinyvec_macros/tinyvec_macros-0.1.0.crate",
        "sha256": "cda74da7e1a664f795bb1f8a87ec406fb89a02522cf6e50620d016add6dbbf5c",
        "dest": "cargo/vendor/tinyvec_macros-0.1.0"
    },
    {
        "type": "inline",
        "contents": "{\"package\": \"cda74da7e1a664f795bb1f8a87ec406fb89a02522cf6e50620d016add6dbbf5c\", \"files\": {}}",
        "dest": "cargo/vendor/tinyvec_macros-0.1.0",
        "dest-filename": ".cargo-checksum.json"
    },
    {
        "type": "archive",
        "archive-type": "tar-gzip",
        "url": "https://static.crates.io/crates/twoway/twoway-0.2.2.crate",
        "sha256": "c57ffb460d7c24cd6eda43694110189030a3d1dfe418416d9468fd1c1d290b47",
        "dest": "cargo/vendor/twoway-0.2.2"
    },
    {
        "type": "inline",
        "contents": "{\"package\": \"c57ffb460d7c24cd6eda43694110189030a3d1dfe418416d9468fd1c1d290b47\", \"files\": {}}",
        "dest": "cargo/vendor/twoway-0.2.2",
        "dest-filename": ".cargo-checksum.json"
    },
    {
        "type": "archive",
        "archive-type": "tar-gzip",
        "url": "https://static.crates.io/crates/unchecked-index/unchecked-index-0.2.2.crate",
        "sha256": "eeba86d422ce181a719445e51872fa30f1f7413b62becb52e95ec91aa262d85c",
        "dest": "cargo/vendor/unchecked-index-0.2.2"
    },
    {
        "type": "inline",
        "contents": "{\"package\": \"eeba86d422ce181a719445e51872fa30f1f7413b62becb52e95ec91aa262d85c\", \"files\": {}}",
        "dest": "cargo/vendor/unchecked-index-0.2.2",
        "dest-filename": ".cargo-checksum.json"
    },
    {
        "type": "archive",
        "archive-type": "tar-gzip",
        "url": "https://static.crates.io/crates/unicode-bidi/unicode-bidi-0.3.8.crate",
        "sha256": "099b7128301d285f79ddd55b9a83d5e6b9e97c92e0ea0daebee7263e932de992",
        "dest": "cargo/vendor/unicode-bidi-0.3.8"
    },
    {
        "type": "inline",
        "contents": "{\"package\": \"099b7128301d285f79ddd55b9a83d5e6b9e97c92e0ea0daebee7263e932de992\", \"files\": {}}",
        "dest": "cargo/vendor/unicode-bidi-0.3.8",
        "dest-filename": ".cargo-checksum.json"
    },
    {
        "type": "archive",
        "archive-type": "tar-gzip",
        "url": "https://static.crates.io/crates/unicode-ident/unicode-ident-1.0.3.crate",
        "sha256": "c4f5b37a154999a8f3f98cc23a628d850e154479cd94decf3414696e12e31aaf",
        "dest": "cargo/vendor/unicode-ident-1.0.3"
    },
    {
        "type": "inline",
        "contents": "{\"package\": \"c4f5b37a154999a8f3f98cc23a628d850e154479cd94decf3414696e12e31aaf\", \"files\": {}}",
        "dest": "cargo/vendor/unicode-ident-1.0.3",
        "dest-filename": ".cargo-checksum.json"
    },
    {
        "type": "archive",
        "archive-type": "tar-gzip",
        "url": "https://static.crates.io/crates/unicode-normalization/unicode-normalization-0.1.21.crate",
        "sha256": "854cbdc4f7bc6ae19c820d44abdc3277ac3e1b2b93db20a636825d9322fb60e6",
        "dest": "cargo/vendor/unicode-normalization-0.1.21"
    },
    {
        "type": "inline",
        "contents": "{\"package\": \"854cbdc4f7bc6ae19c820d44abdc3277ac3e1b2b93db20a636825d9322fb60e6\", \"files\": {}}",
        "dest": "cargo/vendor/unicode-normalization-0.1.21",
        "dest-filename": ".cargo-checksum.json"
    },
    {
        "type": "archive",
        "archive-type": "tar-gzip",
        "url": "https://static.crates.io/crates/unicode-width/unicode-width-0.1.9.crate",
        "sha256": "3ed742d4ea2bd1176e236172c8429aaf54486e7ac098db29ffe6529e0ce50973",
        "dest": "cargo/vendor/unicode-width-0.1.9"
    },
    {
        "type": "inline",
        "contents": "{\"package\": \"3ed742d4ea2bd1176e236172c8429aaf54486e7ac098db29ffe6529e0ce50973\", \"files\": {}}",
        "dest": "cargo/vendor/unicode-width-0.1.9",
        "dest-filename": ".cargo-checksum.json"
    },
    {
        "type": "archive",
        "archive-type": "tar-gzip",
        "url": "https://static.crates.io/crates/url/url-2.3.0.crate",
        "sha256": "22fe195a4f217c25b25cb5058ced57059824a678474874038dc88d211bf508d3",
        "dest": "cargo/vendor/url-2.3.0"
    },
    {
        "type": "inline",
        "contents": "{\"package\": \"22fe195a4f217c25b25cb5058ced57059824a678474874038dc88d211bf508d3\", \"files\": {}}",
        "dest": "cargo/vendor/url-2.3.0",
        "dest-filename": ".cargo-checksum.json"
    },
    {
        "type": "archive",
        "archive-type": "tar-gzip",
        "url": "https://static.crates.io/crates/winapi/winapi-0.3.9.crate",
        "sha256": "5c839a674fcd7a98952e593242ea400abe93992746761e38641405d28b00f419",
        "dest": "cargo/vendor/winapi-0.3.9"
    },
    {
        "type": "inline",
        "contents": "{\"package\": \"5c839a674fcd7a98952e593242ea400abe93992746761e38641405d28b00f419\", \"files\": {}}",
        "dest": "cargo/vendor/winapi-0.3.9",
        "dest-filename": ".cargo-checksum.json"
    },
    {
        "type": "archive",
        "archive-type": "tar-gzip",
        "url": "https://static.crates.io/crates/winapi-i686-pc-windows-gnu/winapi-i686-pc-windows-gnu-0.4.0.crate",
        "sha256": "ac3b87c63620426dd9b991e5ce0329eff545bccbbb34f3be09ff6fb6ab51b7b6",
        "dest": "cargo/vendor/winapi-i686-pc-windows-gnu-0.4.0"
    },
    {
        "type": "inline",
        "contents": "{\"package\": \"ac3b87c63620426dd9b991e5ce0329eff545bccbbb34f3be09ff6fb6ab51b7b6\", \"files\": {}}",
        "dest": "cargo/vendor/winapi-i686-pc-windows-gnu-0.4.0",
        "dest-filename": ".cargo-checksum.json"
    },
    {
        "type": "archive",
        "archive-type": "tar-gzip",
        "url": "https://static.crates.io/crates/winapi-util/winapi-util-0.1.5.crate",
        "sha256": "70ec6ce85bb158151cae5e5c87f95a8e97d2c0c4b001223f33a334e3ce5de178",
        "dest": "cargo/vendor/winapi-util-0.1.5"
    },
    {
        "type": "inline",
        "contents": "{\"package\": \"70ec6ce85bb158151cae5e5c87f95a8e97d2c0c4b001223f33a334e3ce5de178\", \"files\": {}}",
        "dest": "cargo/vendor/winapi-util-0.1.5",
        "dest-filename": ".cargo-checksum.json"
    },
    {
        "type": "archive",
        "archive-type": "tar-gzip",
        "url": "https://static.crates.io/crates/winapi-x86_64-pc-windows-gnu/winapi-x86_64-pc-windows-gnu-0.4.0.crate",
        "sha256": "712e227841d057c1ee1cd2fb22fa7e5a5461ae8e48fa2ca79ec42cfc1931183f",
        "dest": "cargo/vendor/winapi-x86_64-pc-windows-gnu-0.4.0"
    },
    {
        "type": "inline",
        "contents": "{\"package\": \"712e227841d057c1ee1cd2fb22fa7e5a5461ae8e48fa2ca79ec42cfc1931183f\", \"files\": {}}",
        "dest": "cargo/vendor/winapi-x86_64-pc-windows-gnu-0.4.0",
        "dest-filename": ".cargo-checksum.json"
    },
    {
        "type": "inline",
        "contents": "[source.vendored-sources]\ndirectory = \"cargo/vendor\"\n\n[source.crates-io]\nreplace-with = \"vendored-sources\"\n",
        "dest": "cargo",
        "dest-filename": "config"
    }
]